{
  "project_info": {
    "project_number": "703651902092",
    "firebase_url": "https://khabrilal-44d44.firebaseio.com",
    "project_id": "khabrilal-44d44",
    "storage_bucket": "khabrilal-44d44.appspot.com"
  },
  "client": [
    {
      "client_info": {
        "mobilesdk_app_id": "1:703651902092:android:9dd02404fcae5c318f41a9",
        "android_client_info": {
          "package_name": "com.websoftone.khabrilaal"
        }
      },
      "oauth_client": [
        {
          "client_id": "703651902092-tmn6toaojkc37pjlttmqahs2vq2se0gm.apps.googleusercontent.com",
          "client_type": 3
        }
      ],
      "api_key": [
        {
          "current_key": "AIzaSyCM7mYVB8i7FX1-TMilOjuQ1GcNSGLLhBA"
        }
      ],
      "services": {
        "appinvite_service": {
          "other_platform_oauth_client": [
            {
              "client_id": "703651902092-tmn6toaojkc37pjlttmqahs2vq2se0gm.apps.googleusercontent.com",
              "client_type": 3
            }
          ]
        }
      }
    }
  ],
  "configuration_version": "1"
}